[
{
    "pk": 1,
    "model": "incidents.technique",
    "fields": {
        "slug": "2d-rt",
        "description": "",
        "color": "",
        "modality": "photons",
        "order": 1,
        "name": "2D RT"
    }
},
{
    "pk": 2,
    "model": "incidents.technique",
    "fields": {
        "slug": "3d-rt",
        "description": "",
        "color": "",
        "modality": "photons",
        "order": 2,
        "name": "3D RT"
    }
},
{
    "pk": 3,
    "model": "incidents.technique",
    "fields": {
        "slug": "cyber-imrt",
        "description": "",
        "color": "",
        "modality": "photons",
        "order": 3,
        "name": "Cyber IMRT"
    }
},
{
    "pk": 4,
    "model": "incidents.technique",
    "fields": {
        "slug": "electrons",
        "description": "",
        "color": "",
        "modality": "electrons",
        "order": 4,
        "name": "Electrons"
    }
},
{
    "pk": 5,
    "model": "incidents.technique",
    "fields": {
        "slug": "hdr",
        "description": "",
        "color": "",
        "modality": "brachy",
        "order": 5,
        "name": "HDR"
    }
},
{
    "pk": 6,
    "model": "incidents.technique",
    "fields": {
        "slug": "ldr",
        "description": "",
        "color": "",
        "modality": "brachy",
        "order": 6,
        "name": "LDR"
    }
},
{
    "pk": 7,
    "model": "incidents.technique",
    "fields": {
        "slug": "na",
        "description": "",
        "color": "",
        "modality": "n/a",
        "order": 7,
        "name": "N/A"
    }
},
{
    "pk": 8,
    "model": "incidents.technique",
    "fields": {
        "slug": "ortho",
        "description": "",
        "color": "",
        "modality": "ortho",
        "order": 8,
        "name": "Ortho"
    }
},
{
    "pk": 9,
    "model": "incidents.technique",
    "fields": {
        "slug": "sbrt",
        "description": "",
        "color": "",
        "modality": "photons",
        "order": 9,
        "name": "SBRT"
    }
},
{
    "pk": 10,
    "model": "incidents.technique",
    "fields": {
        "slug": "step-shoot-imrt",
        "description": "",
        "color": "",
        "modality": "photons",
        "order": 10,
        "name": "Step & Shoot IMRT"
    }
},
{
    "pk": 11,
    "model": "incidents.technique",
    "fields": {
        "slug": "tomo-imrt",
        "description": "",
        "color": "",
        "modality": "photons",
        "order": 11,
        "name": "Tomo IMRT"
    }
},
{
    "pk": 12,
    "model": "incidents.technique",
    "fields": {
        "slug": "vmat-imrt",
        "description": "",
        "color": "",
        "modality": "photons",
        "order": 12,
        "name": "VMAT IMRT"
    }
}
]
